{
	"employee":[
		{
			"id":1,
			"fullName":"Italo Barboza",
			"department":"Engineering"
		},
		{
			"id":2,
			"fullName":"Harold Pajuelo",
			"department":"Engineering"
		},
		{
			"id":3,
			"fullName":"Pamela Uribe",
			"department":"Quality Assurance"
		},
		{
			"id":4,
			"fullName":"Cheyenne Pitts",
			"department":"Quality Assurance"
		}
	],
	"messages": {
	    "status": "success",
	    "statusCode": 201,
	    "message": "Created",
	    "data": {
		"id": "63c92ab7-3cc4-4930-b1df-e2fb5d66ca38",
		"type": "ASSISTANT",
		"message": "Para bloquear tu tarjeta en la aplicación de RappiBank, sigue estos pasos:\n\nRequisitos:\n- Tener la aplicación de RappiBank instalada en tu dispositivo móvil.\n- Contar con acceso a tu cuenta y tarjeta dentro de la app.\n\nPasos:\n1. Ingresa a la pantalla de inicio de RappiBank.\n2. Accede a la sección de tarjeta, dando clic al ícono de tarjeta en la barra inferior de la pantalla.\n3. Haz clic en \"Congelar\".\n\nUna vez realizado este proceso, tu tarjeta quedará bloqueada y no podrá ser utilizada. Recuerda que también puedes descongelarla en cualquier momento siguiendo los mismos pasos. Si tienes alguna duda o consulta adicional, te recomendamos contactarte con un asesor de RappiBank. ¡Gracias!",
		"createdAt": "2024-08-08T15:32:16.720Z"
	    },
	    "timestamp": 1723131136,
	    "path": "/v1/conversations/915127f8-ef0c-4864-9ed3-2491c48eca9a/messages"
	},
	"feedback": {
		"score": 1,
    		"comments": null
	},
	"conversations": {
	    "status": "success",
	    "statusCode": 201,
	    "message": "Created",
	    "data": {
		"id": "915127f8-ef0c-4864-9ed3-2491c48eca9a",
		"user": {
		    "id": 1
		},
		"channel": "APP",
		"status": "OPEN",
		"createdAt": "2024-08-08T15:31:34.447Z"
	    },
	    "timestamp": 1723131094,
	    "path": "/v1/conversations"
	},
	"users-conversation": {
	    "status": "success",
	    "statusCode": 200,
	    "message": "OK",
	    "meta": {
	        "total": 122,
	        "lastPage": 5,
	        "currentPage": 1,
	        "perPage": 30,
	        "prev": null,
	        "next": 2
	    },
	    "data": [
	       {
			"id": "a9d7ee7c-e910-456c-81d5-b3be1c278b52",
	        "title": "first message",
	        "channel": "APP",
	        "status": "OPEN",
	        "createdAt": "2024-08-14T00:02:48.953Z"
		  },
	       {
			"id": "a9d7ee7c-e910-456c-81d5-b3be1c278b33",
	        "title": "second message",
	        "channel": "APP",
	        "status": "OPEN",
	        "createdAt": "2024-08-14T00:02:48.953Z"
		  }
	    ],
	    "timestamp": 1723750633,
	    "path": "/v1/user/1234578/conversations?offset=1&limit=30"
	},
	"conversation-messages": {
	    "status": "success",
	    "statusCode": 200,
	    "message": "OK",
	    "meta": {
		"total": 122,
		"lastPage": 5,
		"currentPage": 1,
		"perPage": 30,
		"prev": null,
		"next": 2
	    },
	    "data": [
		       {
			"id": "e9d2690c-c7dc-477c-b682-970b20efe5f8",
			"type": "USER",
			"message": "Como puedo consultar mi estado de cuenta?",
			"createdAt": "2024-08-14T00:03:45.873Z"
		    },
		       {
			"id": "e9d2690c-c7dc-477c-b682-970b20efe5f7",
			"type": "ASSISTANT",
			"message": "Para poder ver tu Estado de Cuenta en RappiBank, sigue estos pasos:\n\n1. Ingresa a RappiBank.\n2. Selecciona el icono de la tarjeta.\n3. Escoge la opción \"Estado de Cuenta\".\n4. Selecciona el periodo que deseas revisar tus consumos.\n\nRecuerda que el archivo con tu estado de cuenta será descargado en tu dispositivo y podrás acceder a él con tu identificación.",
			"createdAt": "2024-08-14T00:03:45.873Z"
		    }
	    ],
	    "timestamp": 1723750633,
	    "path": "/v1/conversations/123456/messages?offset=1&limit=30"
	}
}
